<svg width="65" height="65" viewBox="0 0 65 65" fill="none" xmlns="http://www.w3.org/2000/svg">
<path d="M25.5 56.8086H47C48.9625 56.8086 50.575 55.6086 51.275 53.8836L58.4125 36.9586C58.625 36.4086 58.7375 35.8336 58.7375 35.2086V30.3836C58.7375 27.7461 56.6125 24.8086 54.0125 24.8086H39.1125L41.3625 14.6211L41.4375 13.8711C41.4375 12.8836 41.0375 11.9836 40.4 11.3336L37.875 8.80859L22.125 24.7211C21.275 25.5836 20.75 26.7836 20.75 28.1086V52.1086C20.75 54.7461 22.9 56.8086 25.5 56.8086ZM6.75 28.8086H14.75V56.8086H6.75V28.8086Z" fill="#5E46C9"/>
</svg>
