[
    {
        "id": 1,
        "image": "./assets/images/testimonial.svg",
        "desc": "Entera has been an absolute game-changer for my design agency! As their very first customer, I can't emphasize enough how much it has streamlined HR tasks like managing leaves, attendance, and payroll. The user-friendly interface and their stylish logo are great, but what truly sets them apart is their incredible team. Their customer support is top-notch, always quick to resolve any issues. I haven't had to manually check the software – it's that seamless. If you're seeking an HR tool that lets you focus on your core work, give Entera a shot. It'll make your life so much easier. Kudos to the Entera team for crafting such an outstanding product!",
        "author":"Shivam Bansal",
        "designation":"Co-Founder, Adish"
    },
    {
        "id": 2,
        "image": "./assets/images/testimonial.svg",
        "desc": "I'm delighted with the performance of the Entera payroll we've been using. Attendance tracking, leave management, payroll generation, and multi-level approval features have improved efficiency and reduced errors. The software tracks attendance accurately and manages leaves seamlessly, generating accurate payroll reports with just a few clicks. I would highly recommend it.",
        "author":"Shweta Sachdev",
        "designation":"Product Manager, Entera"
    },
    {
        "id": 3,
        "image": "./assets/images/testimonial.svg",
        "desc": "It's an amazing payroll software that helps generate payroll in minutes. Extremely user-friendly with an easy-to-use UI. I highly recommend it to any startup struggling with attendance tracking, leave management, and payroll generation.",
        "author":"Samay Jain",
        "designation":"Manager, SKCPL"
    },
    {
        "id": 4,
        "image": "./assets/images/testimonial.svg",
        "desc": "This fantastic payroll software not only allows you to mark attendance via a biometric device but also from your Android & IOS app which is really handy & extremely useful while requesting leave & payments. The software is designed to streamline payroll generation within minutes, all while providing an incredibly user-friendly interface. For startups dealing with challenges related to attendance tracking, leave management, and payroll processing, I wholeheartedly recommend giving it a try. It's indeed a game-changer app!",
        "author":"Abhishek Kumar Singh",
        "designation":"Associate Product Manager, Entera"
    }

]